…
# Pacific herring

# first let’s look at what species are the in Pacific herring stomach samples

``` r
herring_stomachs <- taxon_table_w_meta %>% 
  filter(Species == "Pacific herring")

herring_stomachs %>%
  group_by(taxon) %>%
  summarise(total = sum(reads)) %>%
  arrange(desc(total))
```

    ## # A tibble: 33 × 2
    ##    taxon                     total
    ##    <chr>                     <dbl>
    ##  1 Clupea pallasii        1342935.
    ##  2 Sebastes                153517 
    ##  3 Leuroglossus schmidti   108830 
    ##  4 Gadus chalcogrammus     105254 
    ##  5 Pleuronectidae           81994 
    ##  6 Gadus macrocephalus      32860 
    ##  7 Stichaeus punctatus      29225 
    ##  8 Gadus                    20510 
    ##  9 Aptocyclus ventricosus   19231 
    ## 10 Zaprora silenus          12694 
    ## # ℹ 23 more rows
…
still pretty hard to tell what’s what. should have someone verify that
these taxa look okay. i.e. nothing from outside the range

let’s make a list of what taxa make up at least 25% of the reads in at
least one sample

``` r
herring_diet %>%
  filter(read_prop >= 0.25) %>%
  group_by(taxon) %>%
  summarize(num = n()) %>%
  arrange(desc(num))
```

    ## # A tibble: 22 × 2
    ##    taxon                           num
    ##    <chr>                         <int>
    ##  1 Sebastes                         21
    ##  2 Leuroglossus schmidti            11
    ##  3 Gadus chalcogrammus              10
    ##  4 Pleuronectidae                    8
    ##  5 Bathymaster caeruleofasciatus     3
    ##  6 Stichaeus punctatus               3
    ##  7 Ammodytes                         2
    ##  8 Anoplarchus                       2
    ##  9 Aptocyclus ventricosus            2
    ## 10 Gadidae                           2
    ## # ℹ 12 more rows
…
# Pink salmon

# first let’s look at what species are the in Pacific herring stomach samples

``` r
pink_stomachs <- taxon_table_w_meta %>% 
  filter(Species == "Pink salmon")

pink_stomachs %>%
  group_by(taxon) %>%
  summarise(total = sum(reads)) %>%
  arrange(desc(total))
```

    ## # A tibble: 33 × 2
    ##    taxon                     total
    ##    <chr>                     <dbl>
    ##  1 Oncorhynchus gorbuscha 1211353.
    ##  2 Oncorhynchus keta       191626 
    ##  3 Sebastes                137836 
    ##  4 Clupea pallasii          71405.
    ##  5 Oncorhynchus             69938 
    ##  6 Gadus                    13535 
    ##  7 Mallotus villosus         2385 
    ##  8 Sebastinae                2185 
    ##  9 Cottidae                   405 
    ## 10 Leuroglossus schmidti      178 
    ## # ℹ 23 more rows
…
